Alex	alex@gmail.com	nowhere	100
Claudiu	claus@gmail.com	Teslui	5
Nume	email@mg	adr	13
Nou	un@email.com	clien	5
3	6	45	7
4	6	5	7
4	5	4	4
3	3	3	3
60	7	6	8
1	1	178975849	1
3	3	366	3
Bebe	emi	nadr	35
r	g	F	2019
